Chevrolet Cobalt 409 509 
Chevrolet Aveo седан 408 508 
Chevrolet Aveo хэтчбек 405 505 
Chevrolet Niva 380 480 
Chevrolet Cruze седан 470 570 
Chevrolet Cruze хэтчбек 479 579 
Chevrolet Cruze универсал 455 555 
Chevrolet Orlando 582 682 
Chevrolet Captiva 950 1150 
Datsun on-DO 295 350 
Ford Focus седан 587 650 
Ford Focus хэтчбек 455 550 
Ford Focus универсал 597 700 
Ford Kuga 559 700 
Great Wall Hover M4 436 536 
Great Wall Wingle 5 534 600 
Great Wall Hover H5 569 669 
Great Wall Hover H6 669 750 
Great Wall Hover H3 585 650 
Hyundai Elantra 444 570 
Hyundai ix35 557 690 
Hyundai i40 589 700 
Hyundai Santa Fe 900 1300 
Hyundai Grand Santa Fe 1100 1600 
Hyundai Tucson 800 1100 
Hyundai i30 599 800 
Hyundai Solaris хэтчбек 369 560 
Hyundai Solaris седан 370 650 
Kia Rio седан 360 600 
Kia Rio хэтчбек 405 550 
Kia Cee'd 409 670 
Kia Venga 664 800 
Kia Soul 539 700 
Kia Cerato 467 750 
Kia Cee'd универсал 459 650 
Kia Sportage 664 860 
Kia Optima 789 900 
Kia Sorento 890 1050 
Lada Нива 2121 315 500 
Lada Нива 2131 351 500 
Lada Granta седан 241 500 
Lada Largus 374 500 
Mazda 3 хэтчбек 650 890 
Mazda 6 седан 900 1100 
Mazda CX-5 879 980 
Mazda 3 седан 709 900 
Nissan Almera 340 550 
Nissan Juke 565 700 
Nissan Tiida седан 589 650 
Nissan Sentra 498 700 
Nissan X-Trail 2014 549 800 
Nissan X-Trail 2015 789 1100 
Nissan Terrano 481 670 
Nissan Teana 803 990 
Nissan Qashqai 581 750 
Opel Corsa 5D 400 550 
Opel Astra хэтчбек 419 550 
Opel Mokka 530 680 
Opel Zafira Tourer 856 970 
Opel Antara 769 930 
Peugeot 301 444 550 
Peugeot 408 474 650 
Renault Megane хэтчбек 471 650 
Renault Duster 444 660 
Renault Sandero Stepway 403 650 
Renault Sandero 300 550 
Renault Logan 305 550 
Skoda Fabia 234 500 
Skoda Octavia 412 612 
Skoda Roomster 606 695 
Skoda Yeti 519 659 
Skoda Superb 612 750 
Skoda Rapid 419 619 
SsangYong Actyon 599 700 
SsangYong Kyron II 759 890 
SsangYong Rexton 798 900 
Suzuki Grand Vitara 609 700 
Toyota Corolla 518 700 
Toyota Camry 825 1200 
Toyota RAV4 590 700 
Volkswagen Polo седан 350 600 
Volkswagen Jetta 479 590 
Volkswagen Passat 768 900 
Volkswagen Tiguan 508 660 
